{
    "KPackageStructure": "KPackage/GenericQML",
    "KPlugin": {
        "Authors": [
            {
                "Email": "devin@kde.org",
                "Name": "Devin Lin",
                "Name[ar]": "ديفين لين",
                "Name[az]": "Devin Lin",
                "Name[ca@valencia]": "Devin Lin",
                "Name[ca]": "Devin Lin",
                "Name[cs]": "Devin Lin",
                "Name[de]": "Devin Lin",
                "Name[en_GB]": "Devin Lin",
                "Name[eo]": "Devin Lin",
                "Name[es]": "Devin Lin",
                "Name[eu]": "Devin Lin",
                "Name[fi]": "Devin Lin",
                "Name[fr]": "Devin Lin",
                "Name[gl]": "Devin Lin",
                "Name[he]": "דווין לין",
                "Name[hu]": "Devin Lin",
                "Name[ia]": "Devin Lin",
                "Name[is]": "Devin Lin",
                "Name[it]": "Devin Lin",
                "Name[ka]": "Devin Lin",
                "Name[ko]": "Devin Lin",
                "Name[lv]": "Devin Lin",
                "Name[nl]": "Devin Lin",
                "Name[nn]": "Devin Lin",
                "Name[pa]": "ਡੇਵਿਨ ਲਿਨ",
                "Name[pl]": "Devin Lin",
                "Name[pt]": "Devin Lin",
                "Name[pt_BR]": "Devin Lin",
                "Name[ru]": "Devin Lin",
                "Name[sk]": "Devin Lin",
                "Name[sl]": "Devin Lin",
                "Name[sv]": "Devin Lin",
                "Name[tr]": "Devin Lin",
                "Name[uk]": "Devin Lin",
                "Name[x-test]": "xxDevin Linxx",
                "Name[zh_CN]": "Devin Lin",
                "Name[zh_TW]": "Devin Lin"
            }
        ],
        "Description": "Power menu quick setting for Plasma Mobile",
        "Description[ca@valencia]": "Configuració ràpida del menú d'iniciada per a Plasma Mobile",
        "Description[ca]": "Configuració ràpida del menú d'engegada per al Plasma Mobile",
        "Description[de]": "Energie-Schnelleinstellung für Plasma Mobile",
        "Description[en_GB]": "Power menu quick setting for Plasma Mobile",
        "Description[eo]": "Potenca menuo rapida agordo por Plasma Mobile",
        "Description[es]": "Ajuste rápido del menú de energía para Plasma Mobile",
        "Description[eu]": "Energia-menuaren ezarpen azkarra Plasma Mugikorrerako",
        "Description[fi]": "Virranhallintavalikon pika-asetus Plasma Mobileen",
        "Description[fr]": "Configuration rapide pour le menu de gestion de l'énergie pour Plasma Mobile",
        "Description[gl]": "Opción rápida do menú de enerxía para Plasma Mobile.",
        "Description[he]": "הגדרה מהירה לתפריט כיבוי לפלזמה לניידים",
        "Description[hu]": "Energiakezelés menü gyorsbeállítása a Plasma Mobile-hoz",
        "Description[ia]": "Preferentia rapide de Menu de Energia per Plasma Mobile",
        "Description[is]": "Flýtistilling fyrir orkuvalmynd fyrir Plasma Mobile",
        "Description[it]": "Impostazioni rapide del menu di alimentazione per Plasma Mobile",
        "Description[ka]": "კვების მენიუს სწრაფი მორგების პარამეტრი Plasma Mobile-სთვის",
        "Description[ko]": "Plasma 모바일의 전원 메뉴 빠른 설정",
        "Description[lv]": "„Plasma Mobile“ energokontroles izvēlnes ātrie iestatījumi",
        "Description[nl]": "Snelle instelling energiemenu voor Plasma Mobile",
        "Description[nn]": "Snøgginnstilling for på/av-meny for Plasma Mobile",
        "Description[pa]": "ਪਲਾਜ਼ਮਾ ਮੋਬਾਈਲ ਲਈ ਪਾਵਰ ਮੇਨੂ ਫ਼ੌਰੀ ਸੈਟਿੰਗ",
        "Description[pl]": "Szybkie otwieranie menu zasilania w Przenośnej Plazmie",
        "Description[pt]": "Configuração rápida do menu de energia do Plasma Mobile",
        "Description[ru]": "Быстрая настройка меню питания для Plasma Mobile",
        "Description[sk]": "Rýchle nastavenie ponuky napájania pre Plasma Mobile",
        "Description[sl]": "Hitre nastavitve porabe energije za Plasma Mobile",
        "Description[tr]": "Plasma Cep güç menüsü tez ayarı",
        "Description[uk]": "Швидке налаштовування меню живлення для Мобільної Плазми",
        "Description[x-test]": "xxPower menu quick setting for Plasma Mobilexx",
        "Description[zh_CN]": "Plasma Mobile 的电源菜单快捷设置",
        "Description[zh_TW]": "Plasma 行動的電源選單快速設定",
        "Icon": "system-shutdown-symbolic",
        "Id": "org.kde.plasma.quicksetting.powermenu",
        "License": "GPL",
        "Name": "Power Menu",
        "Name[az]": "Güc menyusu",
        "Name[ca@valencia]": "Menú d'iniciada",
        "Name[ca]": "Menú d'engegada",
        "Name[de]": "Energieeinstellungen",
        "Name[en_GB]": "Power Menu",
        "Name[eo]": "Potenca Menuo",
        "Name[es]": "Menú de energía",
        "Name[eu]": "Energia menua",
        "Name[fi]": "Virranhallintavalikko",
        "Name[fr]": "Menu « Énergie »",
        "Name[gl]": "Menú de enerxía",
        "Name[he]": "תפריט כיבוי",
        "Name[hi]": "शक्ती मेन्यू",
        "Name[hu]": "Energia menü",
        "Name[ia]": "Menu de Potentia",
        "Name[is]": "Orkuvalmynd",
        "Name[it]": "Menu accensione",
        "Name[ka]": "კვების მენიუ",
        "Name[ko]": "전원 메뉴",
        "Name[lv]": "Energokontroles izvēlne",
        "Name[nl]": "Energiemenu",
        "Name[nn]": "På/av-meny",
        "Name[pa]": "ਪਾਵਰ ਮੇਨੂ",
        "Name[pl]": "Menu zasilania",
        "Name[pt]": "Menu de Energia",
        "Name[pt_BR]": "Menu de energia",
        "Name[ro]": "Meniu avansat",
        "Name[ru]": "Меню питания",
        "Name[sk]": "Ponuka napájania",
        "Name[sl]": "Meni energije",
        "Name[sv]": "Strömmeny",
        "Name[ta]": "ஆற்றல் பட்டி",
        "Name[tr]": "Güç Menüsü",
        "Name[uk]": "Меню живлення",
        "Name[x-test]": "xxPower Menuxx",
        "Name[zh_CN]": "电源菜单",
        "Name[zh_TW]": "電源選單",
        "Website": "https://kde.org"
    }
}
