{
    "KPackageStructure": "KWin/Script",
    "KPlugin": {
        "Authors": [
            {
                "Email": "plata.hill@kdemail.net",
                "Name": "Plata Hill",
                "Name[ca@valencia]": "Plata Hill",
                "Name[ca]": "Plata Hill",
                "Name[cs]": "Plata Hill",
                "Name[de]": "Plata Hill",
                "Name[en_GB]": "Plata Hill",
                "Name[eo]": "Plata Hill",
                "Name[es]": "Plata Hill",
                "Name[eu]": "Plata Hill",
                "Name[fi]": "Plata Hill",
                "Name[fr]": "Plata Hill",
                "Name[gl]": "Plata Hill",
                "Name[he]": "פלאטה היל",
                "Name[hu]": "Plata Hill",
                "Name[ia]": "Plata Hill",
                "Name[is]": "Plata Hill",
                "Name[it]": "Plata Hill",
                "Name[ka]": "Plata Hill",
                "Name[ko]": "Plata Hill",
                "Name[lv]": "Plata Hill",
                "Name[nl]": "Plata Hill",
                "Name[nn]": "Plata Hill",
                "Name[pa]": "ਪਲਾਟਾ ਹਿੱਲ",
                "Name[pl]": "Plata Hill",
                "Name[sk]": "Plata Hill",
                "Name[sl]": "Plata Hill",
                "Name[tr]": "Plata Hill",
                "Name[uk]": "Plata Hill",
                "Name[x-test]": "xxPlata Hillxx",
                "Name[zh_CN]": "Plata Hill",
                "Name[zh_TW]": "Plata Hill"
            }
        ],
        "Description": "Removes window decorations and maximizes windows on the first screen only.",
        "Description[ca@valencia]": "Elimina les decoracions de les finestres i maximitza les finestres només en la primera pantalla.",
        "Description[ca]": "Elimina les decoracions de les finestres i maximitza les finestres només en la primera pantalla.",
        "Description[cs]": "Odstraní dekorace oken a maximalizuje je pouze na první obrazovce.",
        "Description[de]": "Entfernt Fensterdekorationen und maximiert Fenster nur auf dem ersten Bildschirm.",
        "Description[en_GB]": "Removes window decorations and maximises windows on the first screen only.",
        "Description[eo]": "Forigas fenestroornamadojn kaj maksimumigas fenestrojn nur sur la unua ekrano.",
        "Description[es]": "Elimina las decoraciones de las ventanas y maximiza las ventanas solo en la primera pantalla.",
        "Description[eu]": "Leihoko apaingarriak kendu eta leihoak maximizatzen ditu, lehenengo pantailan bakarrik.",
        "Description[fi]": "Poistaa ikkunakoristeet ja suurentaa ikkunat vain ensimmäisellä näytöllä.",
        "Description[fr]": "Supprime les décorations de fenêtres et maximise les fenêtres sur le premier écran uniquement.",
        "Description[gl]": "Elimina as decoracións e maximiza as xanelas só na pantalla principal.",
        "Description[he]": "מסיר עיטורי חלונות ומגדיל את החלון במסך הראשוני בלבד.",
        "Description[hu]": "Eltávolítja az ablakdekorációkat és maximalizálja az ablakokat az első képernyőn.",
        "Description[ia]": "Remove decorationes de fenestra e maximiza fenestra solmente sur prime schermo.",
        "Description[is]": "Fjarlægir gluggaskreytingar og fullstækkar glugga einungis á fyrsta skjánum.",
        "Description[it]": "Rimuove le decorazioni delle finestre e massimizza le finestre solo nella prima schermata.",
        "Description[ka]": "ფანჯრების მთელ ეკრანზე გაშლა და დეკორაციების მოცილება მხოლოდ პირველ ეკრანზე.",
        "Description[ko]": "창 장식을 표시하지 않고 첫 번째 화면에 창을 최대화해서 표시합니다.",
        "Description[lv]": "Noņem logu noformējumu un maksimizē logus tikai pirmajā ekrānā.",
        "Description[nl]": "Vensterdecoraties worden verwijderd en maximaliseert vensters alleen op het eerste scherm.",
        "Description[nn]": "Fjernar vindaugspynt og maksimerer vindauge berre på første skjerm.",
        "Description[pl]": "Usuwa ozdoby okienne i maksymalizuje okna tylko na pierwszym ekranie.",
        "Description[sk]": "Odstráni dekorácie okien a maximalizuje okná len na prvej obrazovke.",
        "Description[sl]": "Odstrani dekoracije oken in maksimiziraj okna samo na prvem zaslonu.",
        "Description[tr]": "Pencere dekorasyonlarını kaldırır ve pencereleri yalnızca ilk ekranda kaplatır.",
        "Description[uk]": "Вилучає оздоблення вікон та максимізує вікна лише на першому екрані.",
        "Description[x-test]": "xxRemoves window decorations and maximizes windows on the first screen only.xx",
        "Description[zh_CN]": "删除窗口装饰并最大化第一个屏幕上的窗口。",
        "Description[zh_TW]": "在第一個螢幕上移除視窗裝飾並讓視窗最大化。",
        "Icon": "preferences-system-windows",
        "Id": "convergentwindows",
        "License": "LGPL-2.1-or-later",
        "Name": "Convergent Windows",
        "Name[ca@valencia]": "Finestres convergents",
        "Name[ca]": "Finestres convergents",
        "Name[de]": "Konvergente Fenster",
        "Name[en_GB]": "Convergent Windows",
        "Name[eo]": "Konverĝaj Fenestroj",
        "Name[es]": "Ventanas convergentes",
        "Name[eu]": "Leiho konbergenteak",
        "Name[fi]": "Mukautuvat ikkunat",
        "Name[fr]": "Fenêtres convergentes",
        "Name[gl]": "Xanelas converxentes",
        "Name[he]": "חלונות משתלבים",
        "Name[hu]": "Konvergens ablakok",
        "Name[ia]": "Fenestras Convergente",
        "Name[is]": "Samræmdir gluggar",
        "Name[it]": "Finestre convergenti",
        "Name[ka]": "კონვერგენტული ფანჯრები",
        "Name[ko]": "컨버전스 창",
        "Name[lv]": "Konverģentie logi",
        "Name[nl]": "Convergente vensters",
        "Name[nn]": "Konvergente vindauge",
        "Name[pl]": "Zbieżne okna",
        "Name[sk]": "Konvergentné okná",
        "Name[sl]": "Convergent Windows",
        "Name[tr]": "Yakınsak Pencereler",
        "Name[uk]": "Збіжні вікна",
        "Name[x-test]": "xxConvergent Windowsxx",
        "Name[zh_CN]": "聚合窗口",
        "Name[zh_TW]": "響應式視窗",
        "Website": "https://invent.kde.org/plasma/plasma-mobile"
    },
    "X-Plasma-API": "declarativescript"
}
