{
    "KPackageStructure": "KPackage/GenericQML",
    "KPlugin": {
        "Authors": [
            {
                "Email": "devin@kde.org",
                "Name": "Devin Lin",
                "Name[ar]": "ديفين لين",
                "Name[az]": "Devin Lin",
                "Name[ca@valencia]": "Devin Lin",
                "Name[ca]": "Devin Lin",
                "Name[cs]": "Devin Lin",
                "Name[de]": "Devin Lin",
                "Name[en_GB]": "Devin Lin",
                "Name[eo]": "Devin Lin",
                "Name[es]": "Devin Lin",
                "Name[eu]": "Devin Lin",
                "Name[fi]": "Devin Lin",
                "Name[fr]": "Devin Lin",
                "Name[gl]": "Devin Lin",
                "Name[he]": "דווין לין",
                "Name[hu]": "Devin Lin",
                "Name[ia]": "Devin Lin",
                "Name[is]": "Devin Lin",
                "Name[it]": "Devin Lin",
                "Name[ka]": "Devin Lin",
                "Name[ko]": "Devin Lin",
                "Name[lv]": "Devin Lin",
                "Name[nl]": "Devin Lin",
                "Name[nn]": "Devin Lin",
                "Name[pa]": "ਡੇਵਿਨ ਲਿਨ",
                "Name[pl]": "Devin Lin",
                "Name[pt]": "Devin Lin",
                "Name[pt_BR]": "Devin Lin",
                "Name[ru]": "Devin Lin",
                "Name[sk]": "Devin Lin",
                "Name[sl]": "Devin Lin",
                "Name[sv]": "Devin Lin",
                "Name[tr]": "Devin Lin",
                "Name[uk]": "Devin Lin",
                "Name[x-test]": "xxDevin Linxx",
                "Name[zh_CN]": "Devin Lin",
                "Name[zh_TW]": "Devin Lin"
            }
        ],
        "Description": "Location quick setting for Plasma Mobile",
        "Description[ca@valencia]": "Configuració ràpida de la ubicació per a Plasma Mobile",
        "Description[ca]": "Configuració ràpida de la ubicació per al Plasma Mobile",
        "Description[de]": "Standort-Schnelleinstellung für Plasma Mobile",
        "Description[en_GB]": "Location quick setting for Plasma Mobile",
        "Description[eo]": "Loka rapida agordo por Plasma Mobile",
        "Description[es]": "Ajuste rápido de la ubicación para Plasma Mobile",
        "Description[eu]": "Kokalekuaren ezarpen azkarra Plasma Mugikorrerako",
        "Description[fi]": "Sijainnin pika-asetus Plasma Mobileen",
        "Description[fr]": "Configuration rapide de la localisation pour Plasma Mobile",
        "Description[gl]": "Opción rápida de localización para Plasma Mobile.",
        "Description[he]": "הגדרה מהירה למיקום לפלזמה לניידים",
        "Description[hu]": "Helymeghatározás gyorsbeállítása a Plasma Mobile-hoz",
        "Description[ia]": "Preferentia rapide de location per Plasma Mobile",
        "Description[is]": "Flýtistilling staðsetningar fyrir Plasma Mobile",
        "Description[it]": "Impostazione rapida della posizione per Plasma Mobile",
        "Description[ka]": "მდებარეობის სწრაფი მორგების პარამეტრი Plasma Mobile-სთვის",
        "Description[ko]": "Plasma 모바일의 위치 빠른 설정",
        "Description[lv]": "„Plasma Mobile“ atrašanās vietas ātrie iestatījumi",
        "Description[nl]": "Snelle instelling van locatie voor Plasma Mobile",
        "Description[nn]": "Snøgginnstilling for stadsinformasjon for Plasma Mobile",
        "Description[pa]": "ਪਲਾਜ਼ਮਾ ਮੋਬਾਈਲ ਲਈ ਟਿਕਾਣਾ ਫ਼ੌਰੀ ਸੈਟਿੰਗ",
        "Description[pl]": "Szybkie włączanie ustalania położenia w Przenośnej Plazmie",
        "Description[pt]": "Configuração rápida da localização do Plasma Mobile",
        "Description[pt_BR]": "Configurações rápidas de localização para o Plasma Mobile",
        "Description[ru]": "Быстрая настройка расположения для Plasma Mobile",
        "Description[sk]": "Rýchle nastavenie polohy pre Plasma Mobile",
        "Description[sl]": "Hitre nastavitve lokacije za Plasma Mobile",
        "Description[tr]": "Plasma Cep konum tez ayarı",
        "Description[uk]": "Швидке налаштовування розташування для Мобільної Плазми",
        "Description[x-test]": "xxLocation quick setting for Plasma Mobilexx",
        "Description[zh_CN]": "Plasma Mobile 的位置信息快捷设置",
        "Description[zh_TW]": "Plasma 行動的地理位置快速設定",
        "Icon": "network-modem",
        "Id": "org.kde.plasma.quicksetting.mobiledata",
        "License": "GPL-2.0+",
        "Name": "Mobile Data",
        "Name[az]": "Mobil internet",
        "Name[ca@valencia]": "Dades mòbils",
        "Name[ca]": "Dades mòbils",
        "Name[cs]": "Mobilní data",
        "Name[de]": "Mobile Daten",
        "Name[en_GB]": "Mobile Data",
        "Name[eo]": "Poŝtelefonaj Datumoj",
        "Name[es]": "Datos móviles",
        "Name[eu]": "Mugikorreko datuak",
        "Name[fi]": "Mobiilidata",
        "Name[fr]": "Données mobiles",
        "Name[gl]": "Datos móbiles",
        "Name[he]": "נתונים סלולריים",
        "Name[hu]": "Mobil adatkapcsolat",
        "Name[ia]": "Datos Mobile",
        "Name[is]": "Farsímagögn",
        "Name[it]": "Dati mobili",
        "Name[ka]": "მობილური ინტერნეტი",
        "Name[ko]": "모바일 데이터",
        "Name[lv]": "Mobilie dati",
        "Name[nl]": "Mobiele gegevens",
        "Name[nn]": "Mobildata",
        "Name[pa]": "ਮੋਬਾਈਲ ਡਾਟਾ",
        "Name[pl]": "Dane komórkowe",
        "Name[pt]": "Dados Móveis",
        "Name[pt_BR]": "Dados móveis",
        "Name[ro]": "Date mobile",
        "Name[ru]": "Мобильные данные",
        "Name[sk]": "Mobilné dáta",
        "Name[sl]": "Mobilni podatki",
        "Name[sv]": "Mobildata",
        "Name[ta]": "கைபேசி தரவு",
        "Name[tr]": "Taşınabilir Veri",
        "Name[uk]": "Мобільні дані",
        "Name[x-test]": "xxMobile Dataxx",
        "Name[zh_CN]": "移动数据",
        "Name[zh_TW]": "行動資料",
        "Website": "https://kde.org"
    }
}
