{
    "KPackageStructure": "KPackage/GenericQML",
    "KPlugin": {
        "Authors": [
            {
                "Email": "devin@kde.org",
                "Name": "Devin Lin",
                "Name[ar]": "ديفين لين",
                "Name[az]": "Devin Lin",
                "Name[ca@valencia]": "Devin Lin",
                "Name[ca]": "Devin Lin",
                "Name[cs]": "Devin Lin",
                "Name[de]": "Devin Lin",
                "Name[en_GB]": "Devin Lin",
                "Name[eo]": "Devin Lin",
                "Name[es]": "Devin Lin",
                "Name[eu]": "Devin Lin",
                "Name[fi]": "Devin Lin",
                "Name[fr]": "Devin Lin",
                "Name[gl]": "Devin Lin",
                "Name[he]": "דווין לין",
                "Name[hu]": "Devin Lin",
                "Name[ia]": "Devin Lin",
                "Name[is]": "Devin Lin",
                "Name[it]": "Devin Lin",
                "Name[ka]": "Devin Lin",
                "Name[ko]": "Devin Lin",
                "Name[lv]": "Devin Lin",
                "Name[nl]": "Devin Lin",
                "Name[nn]": "Devin Lin",
                "Name[pa]": "ਡੇਵਿਨ ਲਿਨ",
                "Name[pl]": "Devin Lin",
                "Name[pt]": "Devin Lin",
                "Name[pt_BR]": "Devin Lin",
                "Name[ru]": "Devin Lin",
                "Name[sk]": "Devin Lin",
                "Name[sl]": "Devin Lin",
                "Name[sv]": "Devin Lin",
                "Name[tr]": "Devin Lin",
                "Name[uk]": "Devin Lin",
                "Name[x-test]": "xxDevin Linxx",
                "Name[zh_CN]": "Devin Lin",
                "Name[zh_TW]": "Devin Lin"
            }
        ],
        "Description": "Screenshot quick setting for Plasma Mobile",
        "Description[ca@valencia]": "Configuració ràpida de la captura de pantalla per a Plasma Mobile",
        "Description[ca]": "Configuració ràpida de la captura de pantalla per al Plasma Mobile",
        "Description[de]": "Screenshot-Schnelleinstellung für Plasma Mobile",
        "Description[en_GB]": "Screenshot quick setting for Plasma Mobile",
        "Description[eo]": "Ekrankopio rapida agordo por Plasma Mobile",
        "Description[es]": "Ajuste rápido de la captura de pantalla para Plasma Mobile",
        "Description[eu]": "Pantaila-argazkietarako ezarpen azkarra Plasma Mugikorrerako",
        "Description[fi]": "Ruutukaappauksen pika-asetus Plasma Mobileen",
        "Description[fr]": "Configuration rapide des copies d'écran pour Plasma Mobile",
        "Description[gl]": "Opción rápida de captura de pantalla para Plasma Mobile.",
        "Description[he]": "הגדרת צילום מסך מהירה לפלזמה לניידים",
        "Description[hu]": "Képernyőkép gyorsbeállítása a Plasma Mobile-hoz",
        "Description[ia]": "Preferentia rapide de Captura de Schermo per Plasma Mobile",
        "Description[is]": "Flýtistilling skjámyndatöku fyrir Plasma Mobile",
        "Description[it]": "Impostazione rapida delle schermate per Plasma Mobile",
        "Description[ka]": "ეკრანის ანაბეჭდის სწრაფი მორგების პარამეტრი Plasma Mobile-სთვის",
        "Description[ko]": "Plasma 모바일의 스크린샷 빠른 설정",
        "Description[lv]": "„Plasma Mobile“ ekrānattēlu ātrie iestatījumi",
        "Description[nl]": "Snelle instelling van schermafdruk voor Plasma Mobile",
        "Description[nn]": "Snøgginnstilling for skjermbilete for Plasma Mobile",
        "Description[pa]": "ਪਲਾਜ਼ਮਾ ਮੋਬਾਈਲ ਲਈ ਸਕਰੀਨਸ਼ਾਟ ਫ਼ੌਰੀ ਸੈਟਿੰਗ",
        "Description[pl]": "Szybkie wykonywanie zrzutu ekranu w Przenośnej Plazmie",
        "Description[pt]": "Configuração rápida da captura do ecrã do Plasma Mobile",
        "Description[pt_BR]": "Configurações rápidas de captura de tela para o Plasma Mobile",
        "Description[ru]": "Быстрая настройка снимка экрана для Plasma Mobile",
        "Description[sk]": "Rýchle nastavenia Snímky obrazovky pre Plasma Mobile",
        "Description[sl]": "Hitre nastavitve slike zaslona za Plasma Mobile",
        "Description[tr]": "Plasma Cep ekran görüntüsü tez ayarı",
        "Description[uk]": "Швидке встановлення знімка вікна для Мобільної Плазми",
        "Description[x-test]": "xxScreenshot quick setting for Plasma Mobilexx",
        "Description[zh_CN]": "Plasma Mobile 的屏幕截图快捷设置",
        "Description[zh_TW]": "Plasma 行動的螢幕截圖快速設定",
        "Icon": "spectacle",
        "Id": "org.kde.plasma.quicksetting.screenshot",
        "License": "GPL-2.0+",
        "Name": "Screenshot",
        "Name[ar]": "لقطة شاشة",
        "Name[az]": "Ekran şəkli",
        "Name[ca@valencia]": "Captura de pantalla",
        "Name[ca]": "Captura de pantalla",
        "Name[cs]": "Snímek obrazovky",
        "Name[de]": "Bildschirmfoto",
        "Name[en_GB]": "Screenshot",
        "Name[eo]": "Ekrankopio",
        "Name[es]": "Captura de pantalla",
        "Name[eu]": "Pantaila-argazkia",
        "Name[fi]": "Ruutukaappaus",
        "Name[fr]": "Copie d'écran",
        "Name[gl]": "Captura de pantalla",
        "Name[he]": "צילום המסך",
        "Name[hu]": "Képernyőkép",
        "Name[ia]": "Instantanee de schermo",
        "Name[is]": "Skjámynd",
        "Name[it]": "Schermata",
        "Name[ka]": "ეკრანის ანაბეჭდი",
        "Name[ko]": "스크린샷",
        "Name[lv]": "Ekrānattēls",
        "Name[nl]": "Schermafdruk",
        "Name[nn]": "Skjermbilete",
        "Name[pa]": "ਸਕਰੀਨਸ਼ਾਟ",
        "Name[pl]": "Zrzut ekranu",
        "Name[pt]": "Captura",
        "Name[pt_BR]": "Captura de tela",
        "Name[ro]": "Captură de ecran",
        "Name[ru]": "Снимок экрана",
        "Name[sk]": "Snímka obrazovky",
        "Name[sl]": "Slika zaslona",
        "Name[sv]": " Skärmbild",
        "Name[ta]": "திரைப்பிடிப்பு",
        "Name[tr]": "Ekran Görüntüsü",
        "Name[uk]": "Знімок вікна",
        "Name[x-test]": "xxScreenshotxx",
        "Name[zh_CN]": "屏幕截图",
        "Name[zh_TW]": "螢幕截圖",
        "Website": "https://kde.org"
    }
}
