{
    "KPackageStructure": "KPackage/GenericQML",
    "KPlugin": {
        "Authors": [
            {
                "Email": "devin@kde.org",
                "Name": "Devin Lin",
                "Name[ar]": "ديفين لين",
                "Name[az]": "Devin Lin",
                "Name[ca@valencia]": "Devin Lin",
                "Name[ca]": "Devin Lin",
                "Name[cs]": "Devin Lin",
                "Name[de]": "Devin Lin",
                "Name[en_GB]": "Devin Lin",
                "Name[eo]": "Devin Lin",
                "Name[es]": "Devin Lin",
                "Name[eu]": "Devin Lin",
                "Name[fi]": "Devin Lin",
                "Name[fr]": "Devin Lin",
                "Name[gl]": "Devin Lin",
                "Name[he]": "דווין לין",
                "Name[hu]": "Devin Lin",
                "Name[ia]": "Devin Lin",
                "Name[is]": "Devin Lin",
                "Name[it]": "Devin Lin",
                "Name[ka]": "Devin Lin",
                "Name[ko]": "Devin Lin",
                "Name[lv]": "Devin Lin",
                "Name[nl]": "Devin Lin",
                "Name[nn]": "Devin Lin",
                "Name[pa]": "ਡੇਵਿਨ ਲਿਨ",
                "Name[pl]": "Devin Lin",
                "Name[pt]": "Devin Lin",
                "Name[pt_BR]": "Devin Lin",
                "Name[ru]": "Devin Lin",
                "Name[sk]": "Devin Lin",
                "Name[sl]": "Devin Lin",
                "Name[sv]": "Devin Lin",
                "Name[tr]": "Devin Lin",
                "Name[uk]": "Devin Lin",
                "Name[x-test]": "xxDevin Linxx",
                "Name[zh_CN]": "Devin Lin",
                "Name[zh_TW]": "Devin Lin"
            }
        ],
        "Description": "Audio quick setting for Plasma Mobile",
        "Description[ca@valencia]": "Configuració ràpida de l'àudio per a Plasma Mobile",
        "Description[ca]": "Configuració ràpida de l'àudio per al Plasma Mobile",
        "Description[de]": "Audio-Schnelleinstellung für Plasma Mobile",
        "Description[en_GB]": "Audio quick setting for Plasma Mobile",
        "Description[eo]": "Audio rapida agordo por Plasma Mobile",
        "Description[es]": "Ajuste rápido del sonido para Plasma Mobile",
        "Description[eu]": "Audioaren ezarpen azkarra Plasma Mugikorrerako",
        "Description[fi]": "Äänen pika-asetus Plasma Mobileen",
        "Description[fr]": "Configuration rapide de l'audio pour Plasma Mobile",
        "Description[gl]": "Opción rápida de son para Plasma Mobile.",
        "Description[he]": "הגדרה מהירה לשמע לפלזמה לניידים",
        "Description[hu]": "Hang gyorsbeállítása a Plasma Mobile-hoz",
        "Description[ia]": "Preferentia rapide de Audio per Plasma Mobile",
        "Description[is]": "Flýtistilling hljóðs fyrir Plasma Mobile",
        "Description[it]": "Impostazioni audio rapide per Plasma Mobile",
        "Description[ka]": "ხმის სწრაფი მორგების პარამეტრი Plasma Mobile-სთვის",
        "Description[ko]": "Plasma 모바일의 오디오 빠른 설정",
        "Description[lv]": "„Plasma Mobile“ skaņas ātrie iestatījumi",
        "Description[nl]": "Snelle instelling van audio voor Plasma Mobile",
        "Description[nn]": "Snøgginnstilling for lyd for Plasma Mobile",
        "Description[pa]": "ਪਲਾਜ਼ਮਾ ਮੋਬਾਈਲ ਲਈ ਆਡੀਓ ਫ਼ੌਰੀ ਸੈਟਿੰਗ",
        "Description[pl]": "Szybkie ustawienia dźwięku w Przenośnej Plazmie",
        "Description[pt]": "Configuração rápida do áudio do Plasma Mobile",
        "Description[pt_BR]": "Configurações rápidas de áudio para o Plasma Mobile",
        "Description[ru]": "Быстрая настройка звука для Plasma Mobile",
        "Description[sk]": "Rýchle nastavenie zvuku pre Plasma Mobile",
        "Description[sl]": "Hitre nastavitve zvoka za Plasma Mobile",
        "Description[tr]": "Plasma Cep ses tez ayarı",
        "Description[uk]": "Швидке налаштовування звуку для Мобільної Плазми",
        "Description[x-test]": "xxAudio quick setting for Plasma Mobilexx",
        "Description[zh_CN]": "Plasma Mobile 的声音快捷设置",
        "Description[zh_TW]": "Plasma 行動的音效快速設定",
        "Icon": "audio-speakers-symbolic",
        "Id": "org.kde.plasma.quicksetting.audio",
        "License": "GPL-2.0+",
        "Name": "Audio",
        "Name[ar]": "الصوت",
        "Name[az]": "Səs",
        "Name[ca@valencia]": "Àudio",
        "Name[ca]": "Àudio",
        "Name[cs]": "Audio",
        "Name[de]": "Audio",
        "Name[en_GB]": "Audio",
        "Name[eo]": "Aŭdio",
        "Name[es]": "Sonido",
        "Name[eu]": "Audioa",
        "Name[fi]": "Ääni",
        "Name[fr]": "Audio",
        "Name[gl]": "Son",
        "Name[he]": "שמע",
        "Name[hu]": "Hang",
        "Name[ia]": "Audio",
        "Name[is]": "Hljóð",
        "Name[it]": "Audio",
        "Name[ka]": "აუდიო",
        "Name[ko]": "오디오",
        "Name[lv]": "Skaņa",
        "Name[nl]": "Audio",
        "Name[nn]": "Lyd",
        "Name[pa]": "ਆਡੀਓ",
        "Name[pl]": "Dźwięk",
        "Name[pt]": "Áudio",
        "Name[pt_BR]": "Áudio",
        "Name[ro]": "Audio",
        "Name[ru]": "Звук",
        "Name[sk]": "Zvuk",
        "Name[sl]": "Zvok",
        "Name[sv]": "Ljud",
        "Name[ta]": "ஒலி",
        "Name[tr]": "Ses",
        "Name[uk]": "Звук",
        "Name[x-test]": "xxAudioxx",
        "Name[zh_CN]": "声音",
        "Name[zh_TW]": "音效",
        "Website": "https://kde.org"
    }
}
