{
    "KPlugin": {
        "Description": "Autodetect cellular APNs in Plasma Mobile",
        "Description[ca@valencia]": "Detecta automàticament els APN mòbils en Plasma Mobile",
        "Description[ca]": "Detecta automàticament els APN mòbils en el Plasma Mobile",
        "Description[en_GB]": "Autodetect cellular APNs in Plasma Mobile",
        "Description[eo]": "Aŭtomate detekti ĉelretajn APN en Plasma-Mobile",
        "Description[es]": "Detección automática de APN móviles en Plasma Mobile",
        "Description[eu]": "Plasma Mugikorrean APN mugikorren hautemate automatikoa",
        "Description[fi]": "Havaitse matkapuhelin-APN:t Plasma Mobilessa",
        "Description[fr]": "Détecter automatiquement les APN cellulaires dans Plasma Mobile",
        "Description[gl]": "Detectar APN celulares automaticamente en Plasma Mobile.",
        "Description[he]": "זיהוי אוטומטי של נקודות הגישה לרשת הסלולרית (APN) בפלזמה לניידים",
        "Description[hu]": "APN-ek automatikus észlelése a Plasma Mobile-ban",
        "Description[ia]": "Auto releva APNs de cellular in Plasma Mobile",
        "Description[is]": "Finna sjálfkrafa APN-heiti í Plasma Mobile",
        "Description[it]": "Rileva automaticamente gli APN cellulari in Plasma Mobile",
        "Description[ka]": "ფიჭური APN-ების ავტომატური დადგენა Plasma Mobile-ში",
        "Description[ko]": "Plasma 모바일에서 셀룰러 APN 자동 감지",
        "Description[lv]": "„Plasma Mobile“ automātiski noteikt mobilos APN",
        "Description[nl]": "Cellulaire APN's automatisch in Plasma Mobile detecteren",
        "Description[pl]": "Sam wykryj komórkowe APNy na Przenośnej Plazmie",
        "Description[sl]": "Samodejno zaznavaj celične APN v Plasma Mobile",
        "Description[tr]": "Plasma Cep’teki erişim noktası adlarını kendiliğinden algıla",
        "Description[uk]": "Автоматично виявляти стільникові точки доступу у Мобільній Плазмі",
        "Description[x-test]": "xxAutodetect cellular APNs in Plasma Mobilexx",
        "Description[zh_CN]": "在 Plasma Mobile 中自动检测蜂窝网络 APN",
        "Description[zh_TW]": "在 Plasma 行動中自動偵測行動 APN",
        "Name": "Plasma Mobile Autodetect APNs",
        "Name[ca@valencia]": "Detecció automàtica dels APN de Plasma Mobile",
        "Name[ca]": "Detecció automàtica dels APN del Plasma Mobile",
        "Name[cs]": "Automatická detekce APN v Plasma Mobile",
        "Name[en_GB]": "Plasma Mobile Autodetect APNs",
        "Name[eo]": "Atomata APN-Ekkono de Plasma-Mobile",
        "Name[es]": "Detección automática de APN en Plasma Mobile",
        "Name[eu]": "Plasma Mugikorrean APN hautemate automatikoa",
        "Name[fi]": "Plasma Mobilen automaattinen APN-havaitseminen",
        "Name[fr]": "Auto-détection des APN de Plasma Mobile",
        "Name[gl]": "Detección de APN",
        "Name[he]": "זיהוי נקודות גישה אוטומטית בפלזמה לניידים",
        "Name[hu]": "Plasma Mobile automatikus APN észlelés",
        "Name[ia]": "Autorelevation de APNs de Plasma Mobile",
        "Name[is]": "Plasma Mobile greina sjálfkrafa APN-heiti",
        "Name[it]": "Rilevamento automatico APN di Plasma Mobile",
        "Name[ka]": "Plasma Mobile-ის APN-ების ავტომატური დადგენა",
        "Name[ko]": "Plasma 모바일 APN 자동 감지",
        "Name[lv]": "„Plasma Mobila“ automātiski noteikt APN",
        "Name[nl]": "Plasma Mobile automatisch APN's detecteren",
        "Name[pl]": "Sam wykryj APNy na Przenośnej Plazmie",
        "Name[sl]": "Plasma Mobile je samodejno zaznala APN",
        "Name[tr]": "Plasma Cep Erişim Noktası Adlarını Kendiliğinden Algıla",
        "Name[uk]": "Автоматичне виявлення точок доступу у Мобільній Плазмі",
        "Name[x-test]": "xxPlasma Mobile Autodetect APNsxx",
        "Name[zh_CN]": "Plasma Mobile 自动检测 APN",
        "Name[zh_TW]": "Plasma 行動自動偵測 APN"
    },
    "OnlyShowIn": "KDE;",
    "X-KDE-Kded-autoload": true,
    "X-KDE-Kded-load-on-demand": true,
    "X-KDE-Kded-phase": 1,
    "X-KDE-Library": "plasma-mobile"
}
